; Cheatsheet for Emacs-VC and git.
; Time-stamp: <2019-06-02 00:21:30 lockywolf>
; Created: 2019-06-01T23:15:46

+------------------+-----------+-----------+----------+
|Git command       |VC         |Name where |comment   |
|                  |keybinding |appropriate|          |
|                  |           |           |          |
+------------------+-----------+-----------+----------+
|git status        |C-x v d    |           |          |
+------------------+-----------+-----------+----------+
|git log           |           |           |          |
+------------------+-----------+-----------+----------+
|git diff          |C-x v =    |           |          |
+------------------+-----------+-----------+----------+
|git diff --cached |           |           |          |
+------------------+-----------+-----------+----------+
|git show          |C-x v D    |           |          |
+------------------+-----------+-----------+----------+
|git add           |?          |           |          |
+------------------+-----------+-----------+----------+
|git add .         |           |           |          |
+------------------+-----------+-----------+----------+
|git commit        |C-x v v    |           |          |
+------------------+-----------+-----------+----------+
|git pull          |C-x v +    |           |          |
+------------------+-----------+-----------+----------+
|git push          |C-x v P    |           |          |
+------------------+-----------+-----------+----------+
|git merge         |C-x v m    |           |          |
+------------------+-----------+-----------+----------+
|git checkout      |C-x v r    |           |          |
|branchname        |           |           |          |
+------------------+-----------+-----------+----------+
|git clean         |           |           |          |
+------------------+-----------+-----------+----------+
|git reset         |C-x v u    |           |          |
+------------------+-----------+-----------+----------+
|git branch        |C-u C-x v v|           |          |
|                  |           |           |          |
+------------------+-----------+-----------+----------+
|git blame         |C-x v g    |           |          |
|                  |           |           |          |
+------------------+-----------+-----------+----------+
|git fetch         |C-x v I    |           |          |
|                  |           |           |          |
+------------------+-----------+-----------+----------+
|.gitignore        |C-x v G    |           |          |
|                  |           |           |          |
+------------------+-----------+-----------+----------+
|                  |           |           |          |
|                  |           |           |          |
+------------------+-----------+-----------+----------+
|                  |C-x v ~    |Visit other|          |
|                  |           |revision   |          |
+------------------+-----------+-----------+----------+
|                  |           |           |          |
+------------------+-----------+-----------+----------+
