+-----------+-----------+-----------+------------------+-----------+-----------+-----------------------+--------------+-----------+-----------+-----------+--------------+
|Unit       |Self-insert|Move left  |Move right        |Move up    |Move down  |Delete left            |Delete right  |Kill left  |Kill right |Indent     |Select        |
+-----------+-----------+-----------+------------------+-----------+-----------+-----------------------+--------------+-----------+-----------+-----------+--------------+
|Character  |<itself>   |C-b        |C-f               |C-p        |C-n        |C-?                    |C-d           |           |           |           |              |
+-----------+-----------+-----------+------------------+-----------+-----------+-----------------------+--------------+-----------+-----------+-----------+--------------+
|Word       |<itself>   |M-b        |M-f               |           |           |                       |              |C-M-?      |M-d        |           |M-@           |
+-----------+-----------+-----------+------------------+-----------+-----------+-----------------------+--------------+-----------+-----------+-----------+--------------+
|Whitespace |<spacebar> |           |forward-whitespace|           |           |M-\                                   |           |           |           |              |
+-----------+-----------+-----------+------------------+-----------+-----------+-----------------------+--------------+-----------+-----------+-----------+--------------+
|Unix word  |<itself>   |           |                  |           |           |                       |              |           |           |           |              |
+-----------+-----------+-----------+------------------+-----------+-----------+-----------------------+--------------+-----------+-----------+-----------+--------------+
|Symbol     |<itself>   |           |                  |           |           |                       |              |           |           |           |              |
+-----------+-----------+-----------+------------------+-----------+-----------+-----------------------+--------------+-----------+-----------+-----------+--------------+
|Sentence   |<itself>   |M-a        |M-e               |           |           |                       |              |C-x C-?    |M-k        |           |              |
+-----------+-----------+-----------+------------------+-----------+-----------+-----------------------+--------------+-----------+-----------+-----------+--------------+
|List       |M-(        |C-M-p      |C-M-n             |C-M-u      |C-M-d      |                       |              |           |           |           |              |
+-----------+-----------+-----------+------------------+-----------+-----------+-----------------------+--------------+-----------+-----------+-----------+--------------+
|sexp       |<itself>   |C-M-b      |C-M-f             |           |           |                       |              |C-x C-M-?  |C-M-k      |indent-sexp|C-M-@         |
+-----------+-----------+-----------+------------------+-----------+-----------+-----------------------+--------------+-----------+-----------+-----------+--------------+
|Line       |C-j        |C-a        |C-e               |           |           |                       |              |M-0 C-k    |C-k        |           |              |
+-----------+-----------+-----------+------------------+-----------+-----------+-----------------------+--------------+-----------+-----------+-----------+--------------+
|Paragraph  |           |           |                  |M-{        |M-}        |backward-kill-paragraph|kill-paragraph|           |           |           |mark-paragraph|
+-----------+-----------+-----------+------------------+-----------+-----------+-----------------------+--------------+-----------+-----------+-----------+--------------+
|Buffer     |           |           |                  |M-<        |M->        |                       |              |           |           |           |C-x h         |
+-----------+-----------+-----------+------------------+-----------+-----------+-----------------------+--------------+-----------+-----------+-----------+--------------+
|Screen     |           |           |                  |C-v        |M-v        |                       |              |           |           |           |              |
+-----------+-----------+-----------+------------------+-----------+-----------+-----------------------+--------------+-----------+-----------+-----------+--------------+
|Page       |C-q C-l    |           |                  |C-x [      |C-x ]      |                       |              |           |           |           |C-x p         |
+-----------+-----------+-----------+------------------+-----------+-----------+-----------------------+--------------+-----------+-----------+-----------+--------------+
|defun      |           |C-M-a      |C-M-e             |           |           |                       |              |           |           |           |C-M-h         |
+-----------+-----------+-----------+------------------+-----------+-----------+-----------------------+--------------+-----------+-----------+-----------+--------------+
|Heading    |C-c RET    |C-c C-<    |C-c C->           |C-c C-b    |C-c C-f    |                       |              |           |           |           |C-c @         |
+-----------+-----------+-----------+------------------+-----------+-----------+-----------------------+--------------+-----------+-----------+-----------+--------------+
Created-by:    Lockywolf
Creator-email: lockywolf gmail.com
Time: 2019-05-10T01:11:00
Git-link: https://gitlab.com/Lockywolf/linuxbugs-lwf/blob/master/cheatsheets/emacs-movement.tbl
EmacsWiki-link: https://www.emacswiki.org/emacs/Lockywolf

