<svg viewBox="0 0 569 546" xmlns="http://www.w3.org/2000/svg">
<g>
<circle cx="362.589996" cy="204.589996" data-fill="1" id="Oval" r="204.589996"></circle>
<rect data-fill="2" height="545.799988" id="Rectangle" width="100" x="0" y="0"></rect>
</g>
</svg>
